<?xml version="1.0" encoding="UTF-8"?>
<svg xmlns="http://www.w3.org/2000/svg" xmlns:xlink="http://www.w3.org/1999/xlink" width="30pt" height="30pt" viewBox="0 0 30 30" version="1.1">
<defs>
<linearGradient id="linear0" gradientUnits="userSpaceOnUse" x1="-28.319" y1="557.986" x2="-28.319" y2="618.787" gradientTransform="matrix(0.503027,0,0,-0.503027,29.245209,310.681769)">
<stop offset="0" style="stop-color:rgb(0%,42.745098%,94.117647%);stop-opacity:1;"/>
<stop offset="1" style="stop-color:rgb(0%,90.588235%,94.117647%);stop-opacity:1;"/>
</linearGradient>
<linearGradient id="linear1" gradientUnits="userSpaceOnUse" x1="-28.319" y1="558.035" x2="-28.319" y2="618.838" gradientTransform="matrix(0.503027,0,0,-0.503027,29.245209,310.681769)">
<stop offset="0" style="stop-color:rgb(0%,42.745098%,94.117647%);stop-opacity:1;"/>
<stop offset="1" style="stop-color:rgb(0%,90.588235%,94.117647%);stop-opacity:1;"/>
</linearGradient>
</defs>
<g id="surface1">
<path style=" stroke:none;fill-rule:nonzero;fill:url(#linear0);" d="M 15 0 C 9.167969 0.0078125 4.441406 4.730469 4.4375 10.5625 C 4.4375 16.226562 14.1875 28.945312 14.601562 29.480469 L 15 30 L 15.398438 29.480469 C 15.8125 28.945312 25.5625 16.226562 25.5625 10.5625 C 25.558594 4.730469 20.832031 0.0078125 15 0 Z M 15 28.339844 C 13.144531 25.855469 5.441406 15.269531 5.441406 10.5625 C 5.441406 5.285156 9.722656 1.007812 15 1.007812 C 20.277344 1.007812 24.558594 5.285156 24.558594 10.5625 C 24.558594 15.269531 16.855469 25.855469 15 28.339844 Z M 15 28.339844 "/>
<path style=" stroke:none;fill-rule:nonzero;fill:url(#linear1);" d="M 15 7.042969 C 13.054688 7.042969 11.480469 8.617188 11.480469 10.5625 C 11.480469 12.507812 13.054688 14.085938 15 14.085938 C 16.945312 14.085938 18.519531 12.507812 18.519531 10.5625 C 18.519531 8.621094 16.945312 7.042969 15 7.042969 Z M 15 13.078125 C 13.609375 13.078125 12.484375 11.953125 12.484375 10.5625 C 12.484375 9.175781 13.609375 8.046875 15 8.046875 C 16.390625 8.046875 17.515625 9.175781 17.515625 10.5625 C 17.511719 11.953125 16.386719 13.078125 15 13.078125 Z M 15 13.078125 "/>
</g>
</svg>
